template_data/test_debug.vcd
$date 2025-12-12T00:53:10.089855 $end
$version BIN to VCD converter $end
$timescale 2ns $end
$scope module raw $end
$var wire 1 ! data0 $end
$var wire 1 " data1 $end
$var wire 1 # data2 $end
$var wire 1 $ data3 $end
$var wire 1 % data4 $end
$var wire 1 & data5 $end
$var wire 1 ' data6 $end
$var wire 1 ( data7 $end
$var wire 1 ) data8 $end
$var wire 1 * data9 $end
$var wire 1 ? clk $end
$var wire 1 @ sample_I $end
$var wire 1 A sample_Q $end
$upscope $end
$scope module cl $end
$var wire 1 + data0_cl $end
$var wire 1 , data1_cl $end
$var wire 1 - data2_cl $end
$var wire 1 . data3_cl $end
$var wire 1 / data4_cl $end
$var wire 1 0 data5_cl $end
$var wire 1 1 data6_cl $end
$var wire 1 2 data7_cl $end
$var wire 1 3 data8_cl $end
$var wire 1 4 data9_cl $end
$upscope $end
$scope module smp $end
$var wire 1 5 smp0 $end
$var wire 1 6 smp1 $end
$var wire 1 7 smp2 $end
$var wire 1 8 smp3 $end
$var wire 1 9 smp4 $end
$var wire 1 : smp5 $end
$var wire 1 ; smp6 $end
$var wire 1 < smp7 $end
$var wire 1 = smp8 $end
$var wire 1 > smp9 $end
$upscope $end
$scope module iq $end
$var wire 10 B I_data[9:0] $end
$var wire 10 C Q_data[9:0] $end
$upscope $end
$enddefinitions $end
$dumpvars
0!
0"
1#
1$
0%
1&
1'
1(
1)
1*
0?
0@
0A
0+
0,
1-
1.
0/
10
11
12
13
14
05
06
07
08
09
0:
0;
0<
0=
0>
b0000000000 B
b0000000000 C
$end
#12
0'
0(
0)
0*
01
02
03
04
#13
0&
00
19
1;
1<
1=
1?
1@
b0000001110 B
#14
09
0;
0<
0=
0@
#15
1"
1,
#23
16
17
18
#24
15
06
07
08
1:
1>
#25
05
0:
0>
#27
0"
0,
#29
1%
1/
#30
1'
1(
1)
11
12
13
#31
1&
1*
10
14
0?
1A
b1111111100 C
#32
0A
#43
0)
03
#44
0&
0'
0(
0*
00
01
02
04
1:
1=
1?
1@
b0000011000 B
#45
1"
1,
0:
0=
0@
#46
0%
0/
#49
1%
1/
#50
0"
0,
#51
0#
0-
#53
19
#54
16
17
18
09
1;
1<
#55
1&
10
15
06
07
08
0;
0<
1>
#56
05
0>
#61
1)
13
#62
1'
1(
1*
11
12
14
0?
1A
b1111111000 C
#63
0A
#74
0)
03
#75
0'
0(
0*
01
02
04
17
18
19
1=
1?
1@
b0000111000 B
#76
07
08
09
0=
0@
#79
1!
1+
#82
0!
0+
#84
0$
0%
0.
0/
#85
1#
1-
16
1;
1<
#86
1"
15
06
1:
0;
0<
1>
#87
05
0:
0>
#88
0"
0#
0-
#92
1$
1)
1.
13
#93
1'
1(
1*
11
12
14
0?
1A
b1111101000 C
#94
0A
#105
0)
03
#106
0'
0(
0*
01
02
04
#107
0$
0.
18
1;
1<
1=
1>
1?
1@
b0000000100 B
#108
1"
1,
08
0;
0<
0=
0>
0@
#109
1#
1-
#113
0"
0,
#115
0&
00
#116
1$
1.
19
#117
16
17
09
#118
15
06
07
1:
#119
05
0:
#122
0#
0-
#123
1&
1)
10
13
#124
1'
1(
1*
11
12
14
#125
0?
1A
#126
0A
#137
0'
0(
0)
0*
01
02
03
04
#138
0&
00
16
18
19
1:
1;
1<
1=
1>
1?
1@
b0000001000 B
#139
06
08
09
0:
0;
0<
0=
0>
0@
#140
1#
1-
#142
1!
0#
1+
0-
#144
0!
0+
#146
1%
1)
1*
1/
13
14
#147
1(
12
#148
1"
1&
1'
1,
10
11
17
#149
15
07
#150
05
#153
0$
0.
#154
1!
1+
#155
0?
#163
1A
b1111110011 C
#164
0A
#169
0!
0+
15
16
17
1:
1;
1<
1=
1>
1?
1@
b1111110010 B
#170
1$
1.
05
06
07
0:
0;
0<
0=
0>
0@
#177
0$
0.
#178
0"
0,
19
#179
1#
1-
18
09
#180
1!
1+
08
#183
1"
1,
#184
0#
0(
0)
0*
0-
02
03
04
#185
0&
0'
00
01
#186
0%
0/
0?
1A
b0000000011 C
#187
0A
#199
0"
0,
#201
1%
1)
1/
13
15
18
1=
1?
1@
b1111110001 B
#202
1&
1'
1(
1*
10
11
12
14
05
08
0=
0@
#203
1#
1-
#205
0#
0-
#209
0!
0+
#210
1$
1.
19
#211
16
17
09
1;
1<
#212
06
07
1:
0;
0<
1>
#213
0:
0>
#215
0$
0)
0.
03
#216
0&
0'
0(
0*
00
01
02
04
#217
0?
#225
1A
b0000010000 C
#226
0A
#232
15
19
1?
1@
b0000010000 B
#233
1$
1'
1(
1)
1*
1.
11
12
13
14
05
09
0@
#234
1&
10
#237
0)
03
#238
0*
04
#239
0'
0(
01
02
#240
0$
0%
0&
0.
0/
00
#242
16
17
18
1;
1<
#243
1#
06
07
08
1:
0;
0<
1=
1>
#244
0#
0:
0=
0>
#246
1!
1+
#247
1%
1/
#248
1$
1.
#249
0?
#257
1A
b0000011001 C
#258
0A
#263
0$
0.
18
1?
1@
b0000010001 B
#264
0%
0/
08
0@
#268
1%
1/
#272
19
#273
16
17
09
1;
1<
#274
15
06
07
1:
0;
0<
1=
1>
#275
05
0:
0=
0>
#279
1$
1.
#280
1"
1,
0?
#288
1A
b0000011011 C
#289
0A
#294
0"
0$
0,
0.
18
1?
1@
#295
08
0@
#303
1$
1.
19
#304
16
17
09
1;
1<
#305
15
06
07
1:
0;
0<
1=
1>
#306
05
0:
0=
0>
#309
0$
0.
#311
0!
1"
0+
1,
0?
1A
b0000010110 C
#312
1#
1-
0A
#325
0"
0#
0,
0-
#326
19
1?
1@
b0000010000 B
#327
1$
1.
09
0@
#328
1!
1+
#333
0!
0$
0+
0.
#334
0%
0/
#336
16
17
18
1;
1<
#337
15
06
07
08
1:
0;
0<
1=
1>
#338
05
0:
0=
0>
#342
1$
1.
0?
#343
1"
1#
1,
1-
#350
1A
b0000001110 C
#351
0A
#356
0"
0,
#357
0#
0$
0-
0.
16
1?
1@
b0000100000 B
#358
06
0@
#360
1&
10
#366
1"
1,
19
#367
17
18
09
1;
1<
#368
15
07
08
1:
0;
0<
1=
1>
#369
05
0:
0=
0>
#372
0&
00
#373
0?
#374
1#
1-
#381
1A
b0000000110 C
#382
0A
#388
0#
0-
16
17
18
1?
1@
b0000010010 B
#389
06
07
08
0@
#390
1&
10
#394
1#
1-
#395
1%
0&
1/
00
#397
1$
1.
19
#398
09
1;
1<
#399
1!
15
1:
0;
0<
1=
1>
#400
05
0:
0=
0>
#401
0!
#403
0"
0,
#404
1&
10
#405
1'
1(
1)
1*
11
12
13
14
0?
1A
b1111111100 C
#406
0A
#418
0)
03
#419
0'
0(
0*
01
02
04
#420
1"
0&
1,
00
1?
#422
1!
1+
#426
0!
0+
#427
0#
0-
#429
19
1@
b0000011010 B
#430
16
17
18
09
1;
1<
0@
#431
15
06
07
08
1:
0;
0<
1=
1>
#432
05
0:
0=
0>
#436
1'
1(
1)
1*
11
12
13
14
0?
1A
b1111111010 C
#437
1&
10
0A
#449
0)
03
#450
0'
0(
0*
01
02
04
#451
0&
00
16
17
18
1=
1?
1@
#452
06
07
08
0=
0@
#459
1#
0$
1-
0.
#460
19
#461
09
1;
1<
#462
15
1:
0;
0<
1>
#463
05
0:
0>
#464
0#
0-
#465
0"
0,
#466
1$
1.
#467
1)
13
#468
1&
1'
1(
1*
10
11
12
14
0?
1A
b1111111001 C
#469
1!
1+
0A
#481
0'
0)
0*
01
03
04
#482
0$
0&
0(
0.
00
02
18
1=
1?
1@
b0000010010 B
#483
0!
1"
0+
1,
08
0=
0@
#484
1#
1-
#485
0#
0-
#491
19
#492
16
17
09
1;
1<
#493
15
06
07
1:
0;
0<
1>
#494
05
0:
0>
#496
0"
0,
#498
1$
1)
1.
13
#499
1#
1&
1'
1(
1*
1-
10
11
12
14
0?
1A
b1111111100 C
#500
0A
#512
0)
03
#513
0$
0&
0'
0(
0*
0.
00
01
02
04
1?
#514
1"
0#
1,
0-
#522
19
1@
#523
16
17
18
09
1;
1<
0@
#524
15
06
07
08
1:
0;
0<
1=
1>
#525
05
0:
0=
0>
#528
0"
0,
#530
1#
1$
1'
1(
1)
1*
1-
1.
11
12
13
14
0?
1A
b1111111101 C
#531
1!
1&
1+
10
0A
#543
0)
03
#544
0$
0'
0(
0*
0.
01
02
04
1?
#545
0!
1"
0#
0&
0+
1,
0-
00
#550
0"
0,
#553
19
1@
b0000010000 B
#554
16
17
18
09
1;
1<
0@
#555
1!
15
06
07
08
1:
0;
0<
1=
1>
#556
05
0:
0=
0>
#557
0!
#561
1"
1#
1$
1'
1(
1)
1*
1,
1-
1.
11
12
13
14
0?
1A
b1111111110 C
#562
1&
10
0A
#575
0'
0)
0*
01
03
04
#576
0"
0#
0$
0&
0(
0,
0-
0.
00
02
16
1?
1@
#577
06
0@
#585
1"
1,
19
#586
17
18
09
1;
1<
#587
15
07
08
1:
0;
0<
1=
1>
#588
05
0:
0=
0>
#592
0?
#593
0%
0/
#600
1A
b0000000010 C
#601
0A
#607
1%
1/
16
1?
1@
b0000010010 B
#608
06
0@
#615
0"
0,
#616
19
#617
17
18
09
1;
1<
#618
15
07
08
1:
0;
0<
1=
1>
#619
05
0:
0=
0>
#621
1"
1,
#623
0?
1A
#624
0%
0/
0A
#638
0"
1%
0,
1/
#639
16
1?
1@
b0000010000 B
#640
06
0@
#641
1!
1+
#645
0!
0+
#646
1"
1,
#648
19
#649
17
18
09
1;
1<
#650
15
07
08
1:
0;
0<
1=
1>
#651
05
0:
0=
0>
#654
0?
#655
0%
0/
#662
1A
#663
0A
#670
1%
1/
16
1?
1@
b0000010010 B
#671
06
0@
#679
19
#680
17
18
09
1;
1<
#681
15
07
08
1:
0;
0<
1=
1>
#682
05
0:
0=
0>
#685
0"
0,
#686
0%
0/
0?
#688
1!
1+
#694
1A
b0000000001 C
#695
0A
#700
0!
0+
#701
1%
1/
1?
#702
1"
1,
#708
0"
0,
#710
19
1@
b0000010000 B
#711
16
17
18
09
1;
1<
0@
#712
15
06
07
08
1:
0;
0<
1=
1>
#713
05
0:
0=
0>
#717
0%
0/
0?
#719
1!
1+
#725
1A
#726
0A
#732
0!
1%
0+
1/
16
1?
1@
#733
06
0@
#741
1"
1,
19
#742
17
18
09
1;
1<
#743
15
07
08
1:
0;
0<
1=
1>
#744
05
0:
0=
0>
#748
0%
0/
0?
#750
1!
1+
#756
1A
b0000000011 C
#757
0A
#763
0!
1%
0+
1/
15
1?
1@
b0000010010 B
#764
05
0@
#772
19
#773
1!
1+
16
17
18
09
1;
1<
#774
06
07
08
1:
0;
0<
1=
1>
#775
0:
0=
0>
#777
0!
0+
#779
0?
#780
0%
0/
#781
1#
1-
#787
1A
b0000000110 C
#788
0A
#794
0#
0-
#795
1%
1/
1?
#797
1!
1+
#801
0!
0+
#804
19
1@
#805
16
17
18
09
1;
1<
0@
#806
15
06
07
08
1:
0;
0<
1=
1>
#807
05
0:
0=
0>
#811
0%
0/
0?
#812
1#
1-
#819
1A
#820
0A
#825
0#
0-
#826
1%
1/
16
17
1?
1@
#827
06
07
0@
#831
1#
1-
#834
0"
0,
#835
19
#836
18
09
1;
1<
#837
15
08
1:
0;
0<
1=
1>
#838
05
0:
0=
0>
#840
1"
1,
#842
0%
0/
0?
#850
1A
#851
0A
#857
0"
1%
0,
1/
1?
#866
19
1@
b0000010100 B
#867
16
17
18
09
1;
1<
0@
#868
15
06
07
08
1:
0;
0<
1=
1>
#869
05
0:
0=
0>
#873
0?
#874
0%
0/
#881
1A
b0000000100 C
#882
0A
#889
1%
1/
16
1?
1@
#890
06
0@
#891
1!
1+
#895
0!
0+
#897
1"
1,
#898
19
#899
17
18
09
1;
1<
#900
15
07
08
1:
0;
0<
1=
1>
#901
05
0:
0=
0>
#904
1!
0#
1+
0-
0?
#905
0%
0/
#912
1A
b0000000011 C
#913
0A
#920
0!
1%
0+
1/
15
16
1?
1@
b0000010110 B
#921
1#
1-
05
06
0@
#928
0"
0,
#929
1!
1+
19
#930
17
18
09
1;
1<
#931
07
08
1:
0;
0<
1=
1>
#932
0:
0=
0>
#933
1"
1,
#936
0#
0%
0-
0/
0?
#944
1A
#945
0A
#951
0"
1%
0,
1/
16
1?
1@
b0000010001 B
#952
1#
1-
06
0@
#955
0#
0-
#959
1"
1,
#960
19
#961
17
18
09
1;
1<
#962
15
07
08
1:
0;
0<
1=
1>
#963
05
0:
0=
0>
#967
0!
0%
0+
0/
0?
1A
b0000000010 C
#968
0A
#982
1%
1/
#983
1?
#984
1!
1+
#989
0!
0+
#992
19
1@
b0000010010 B
#993
16
17
18
09
1;
1<
0@
#994
15
06
07
08
1:
0;
0<
1=
1>
#995
05
0:
0=
0>
#998
0%
0/
0?
1A
#999
0A
#1013
1%
1/
#1014
1?
#1023
19
1@
#1024
16
17
18
09
1;
1<
0@
#1025
15
06
07
08
1:
0;
0<
1=
1>
#1026
05
0:
0=
0>
#1029
0?
#1030
0%
0/
#1037
1A
#1038
0A
#1045
1%
1/
15
16
1?
1@
#1046
05
06
0@
#1053
0"
0,
#1054
19
#1055
17
18
09
1;
1<
#1056
1!
1+
07
08
1:
0;
0<
1=
1>
#1057
0:
0=
0>
#1060
0?
#1061
0%
0/
#1062
1#
1-
#1068
1A
b0000000101 C
#1069
0A
#1075
0#
0-
#1076
1%
1/
15
17
1?
1@
b0000010001 B
#1077
05
07
0@
#1081
1#
1-
#1085
0!
0+
19
#1086
16
18
09
1;
1<
#1087
06
08
1:
0;
0<
1=
1>
#1088
0:
0=
0>
#1090
1!
1+
#1092
0%
0/
0?
1A
#1093
0A
#1107
0!
1%
0+
1/
#1108
15
1?
1@
b0000010100 B
#1109
05
0@
#1117
1!
1+
19
#1118
16
17
18
09
1;
1<
#1119
06
07
08
1:
0;
0<
1=
1>
#1120
0:
0=
0>
#1121
0!
0+
#1123
1"
0%
1,
0/
0?
1A
b0000000110 C
#1124
0A
#1138
0"
1%
0,
1/
#1139
16
1?
1@
#1140
06
0@
#1141
1!
1+
#1145
0!
0+
#1146
1"
1,
#1148
19
#1149
17
18
09
1;
1<
#1150
15
07
08
1:
0;
0<
1=
1>
#1151
05
0:
0=
0>
#1152
0"
0,
#1154
0%
0/
0?
#1162
1A
b0000000100 C
#1163
0A
#1170
1"
1%
1,
1/
16
1?
1@
b0000010110 B
#1171
06
0@
#1177
0"
0,
#1179
19
#1180
17
18
09
1;
1<
#1181
15
07
08
1:
0;
0<
1=
1>
#1182
05
0:
0=
0>
#1185
1"
1,
0?
1A
b0000000010 C
#1186
0#
0%
0-
0/
0A
#1200
0"
0,
#1201
1%
1/
1?
#1202
1#
1-
#1210
19
1@
b0000010100 B
#1211
16
17
18
09
1;
1<
0@
#1212
15
06
07
08
1:
0;
0<
1=
1>
#1213
05
0:
0=
0>
#1217
0#
0%
0-
0/
0?
1A
b0000000001 C
#1218
0A
#1219
1!
1+
#1232
0!
1%
0+
1/
#1233
1#
1-
1?
#1242
19
1@
#1243
16
17
18
09
1;
1<
0@
#1244
15
06
07
08
1:
0;
0<
1=
1>
#1245
05
0:
0=
0>
#1248
1"
0#
0%
1,
0-
0/
0?
1A
b0000000010 C
#1249
0A
#1263
0"
0,
#1264
1#
1%
1-
1/
16
1?
1@
#1265
06
0@
#1271
1"
1,
#1273
19
#1274
17
18
09
1;
1<
#1275
15
07
08
1:
0;
0<
1=
1>
#1276
05
0:
0=
0>
#1279
0#
0%
0-
0/
0?
#1287
1A
#1288
0A
#1295
1%
1/
1?
#1296
1#
1-
#1299
0#
0-
#1304
19
1@
b0000010010 B
#1305
16
17
18
09
1;
1<
0@
#1306
15
06
07
08
1:
0;
0<
1=
1>
#1307
05
0:
0=
0>
#1310
0?
#1311
0%
0/
#1318
1A
#1319
0A
#1326
1%
1/
16
17
1?
1@
#1327
06
07
0@
#1334
1#
1-
#1335
0"
0,
19
#1336
18
09
1;
1<
#1337
15
08
1:
0;
0<
1=
1>
#1338
05
0:
0=
0>
#1339
1"
1,
#1340
0#
0-
#1342
0%
0/
0?
1A
#1343
0A
#1357
0"
1%
0,
1/
#1358
1#
1-
1?
#1359
1!
1+
#1367
19
1@
b0000010101 B
#1368
16
17
18
09
1;
1<
0@
#1369
15
06
07
08
1:
0;
0<
1=
1>
#1370
05
0:
0=
0>
#1372
0!
0+
#1373
1"
1,
0?
#1374
1$
1&
1'
1(
1)
1*
1.
10
11
12
13
14
#1381
1A
b1111111110 C
#1382
0A
#1387
0)
03
#1388
0$
0&
0'
0(
0*
0.
00
01
02
04
#1389
0"
0,
1?
#1392
1!
1+
#1394
0!
0+
#1398
19
1@
b0000010100 B
#1399
16
17
18
09
1;
1<
0@
#1400
15
06
07
08
1:
0;
0<
1=
1>
#1401
05
0:
0=
0>
#1404
0?
#1405
1!
1$
1&
1'
1(
1)
1*
1+
1.
10
11
12
13
14
#1412
1A
b1111111101 C
#1413
0A
#1418
0)
03
#1419
0$
0&
0'
0(
0*
0.
00
01
02
04
#1420
0!
0+
1?
#1429
19
1@
#1430
16
17
18
09
1;
1<
0@
#1431
15
06
07
08
1:
0;
0<
1=
1>
#1432
05
0:
0=
0>
#1435
0?
#1436
0#
0%
0-
0/
#1437
1!
1+
#1443
1A
b0000000001 C
#1444
0A
#1450
0!
0+
#1451
1%
1/
#1452
1#
1-
1?
#1461
19
1@
#1462
16
17
18
09
1;
1<
0@
#1463
15
06
07
08
1:
0;
0<
1=
1>
#1464
05
0:
0=
0>
#1467
1"
0#
0%
1,
0-
0/
0?
1A
b0000000010 C
#1468
0A
#1482
0"
1%
0,
1/
#1483
1#
1-
16
17
1?
1@
#1484
06
07
0@
#1486
0#
0-
#1490
1"
1,
#1492
19
#1493
1!
18
09
1;
1<
#1494
15
08
1:
0;
0<
1=
1>
#1495
0!
05
0:
0=
0>
#1498
0%
0/
0?
#1506
1A
#1507
0A
#1514
1%
1/
16
1?
1@
b0000010110 B
#1515
1!
1+
06
0@
#1520
0!
0+
#1521
1#
1-
#1522
0"
0,
#1523
19
#1524
17
18
09
1;
1<
#1525
15
07
08
1:
0;
0<
1=
1>
#1526
05
0:
0=
0>
#1529
1"
1,
0?
#1530
1$
1'
1(
1)
1*
1.
11
12
13
14
#1531
1&
10
#1537
1A
b1111111110 C
#1538
0A
#1543
0)
03
#1544
0$
0'
0(
0*
0.
01
02
04
#1545
0"
0&
0,
00
16
1?
1@
b0000010000 B
#1546
06
0@
#1551
0#
0-
#1553
1"
1,
#1554
19
#1555
1!
17
18
09
1;
1<
#1556
15
07
08
1:
0;
0<
1=
1>
#1557
0!
05
0:
0=
0>
#1560
1#
1-
0?
#1561
1$
1'
1(
1)
1*
1.
11
12
13
14
#1562
1&
10
#1568
1A
#1569
0A
#1574
0)
03
#1575
0$
0'
0(
0*
0.
01
02
04
#1576
0#
0&
0-
00
16
17
1?
1@
b0000010010 B
#1577
06
07
0@
#1579
1!
1+
#1581
1#
1-
#1582
0!
0+
#1584
0"
0,
#1585
19
#1586
18
09
1;
1<
#1587
15
08
1:
0;
0<
1=
1>
#1588
05
0:
0=
0>
#1591
0?
#1592
1)
13
#1593
1!
1$
1&
1'
1(
1*
1+
1.
10
11
12
14
#1599
1A
b1111111101 C
#1600
0A
#1606
0'
0)
0*
01
03
04
#1607
0$
0&
0(
0.
00
02
#1608
0!
0+
15
16
1?
1@
b0000010000 B
#1609
05
06
0@
#1613
0#
0-
#1616
1"
1,
#1617
1!
1+
19
#1618
17
18
09
1;
1<
#1619
07
08
1:
0;
0<
1=
1>
#1620
0:
0=
0>
#1622
1#
1-
#1623
1$
1)
1.
13
0?
1A
b1111111111 C
#1624
1&
1'
1(
1*
10
11
12
14
0A
#1637
0)
03
#1638
0$
0&
0'
0(
0*
0.
00
01
02
04
#1639
0#
0-
1?
#1648
19
1@
b0000010011 B
#1649
16
17
18
09
1;
1<
0@
#1650
15
06
07
08
1:
0;
0<
1=
1>
#1651
05
0:
0=
0>
#1654
0"
0,
0?
#1655
0%
0/
#1662
1A
b0000000001 C
#1663
0A
#1670
1"
1%
1,
1/
15
1?
1@
#1671
05
0@
#1679
0!
0+
19
#1680
16
17
18
09
1;
1<
#1681
06
07
08
1:
0;
0<
1=
1>
#1682
0:
0=
0>
#1685
0?
#1686
0%
0/
#1693
1A
b0000000010 C
#1694
0A
#1701
1%
1/
#1702
15
1?
1@
b0000010010 B
#1703
05
0@
#1711
19
#1712
1!
1+
16
17
18
09
1;
1<
#1713
06
07
08
1:
0;
0<
1=
1>
#1714
0:
0=
0>
#1717
0"
0%
0,
0/
0?
1A
b0000000001 C
#1718
0A
#1732
1"
1%
1,
1/
#1733
1?
#1742
19
1@
b0000010011 B
#1743
16
17
18
09
1;
1<
0@
#1744
15
06
07
08
1:
0;
0<
1=
1>
#1745
05
0:
0=
0>
#1748
0%
0/
0?
1A
b0000000010 C
#1749
0!
0+
0A
#1763
1%
1/
#1764
1?
#1765
1!
1+
#1771
0!
0+
#1773
19
1@
b0000010010 B
#1774
16
17
18
09
1;
1<
0@
#1775
15
06
07
08
1:
0;
0<
1=
1>
#1776
05
0:
0=
0>
#1779
1!
1+
0?
#1780
0%
0/
#1787
1A
b0000000011 C
#1788
0A
#1795
0!
1%
0+
1/
15
1?
1@
#1796
05
0@
#1804
1!
1+
19
#1805
16
17
18
09
1;
1<
#1806
06
07
08
1:
0;
0<
1=
1>
#1807
0:
0=
0>
#1810
0?
#1811
0"
0%
0,
0/
#1812
1#
1-
#1818
1A
b0000000101 C
#1819
0A
#1826
1"
0#
1%
1,
0-
1/
#1827
15
1?
1@
b0000010011 B
#1828
05
0@
#1835
0!
0+
#1836
19
#1837
16
17
18
09
1;
1<
#1838
06
07
08
1:
0;
0<
1=
1>
#1839
0:
0=
0>
#1840
1!
1+
#1842
0%
0/
0?
1A
b0000000011 C
#1843
0A
#1857
1%
1/
#1858
0!
0+
16
1?
1@
b0000010110 B
#1859
06
0@
#1865
1#
1-
#1866
0"
0,
#1867
19
#1868
17
18
09
1;
1<
#1869
15
07
08
1:
0;
0<
1=
1>
#1870
05
0:
0=
0>
#1871
1"
0#
1,
0-
#1873
0%
0/
0?
1A
#1874
1!
1+
0A
#1888
0!
0"
1%
0+
0,
1/
#1889
16
1?
1@
b0000010100 B
#1890
1#
1-
06
0@
#1896
1"
1,
#1898
19
#1899
17
18
09
1;
1<
#1900
15
07
08
1:
0;
0<
1=
1>
#1901
05
0:
0=
0>
#1904
0#
0%
0-
0/
0?
#1905
1!
1+
#1912
1A
#1913
0A
#1920
0!
1%
0+
1/
1?
#1921
1#
1-
#1929
19
1@
b0000010110 B
#1930
16
17
18
09
1;
1<
0@
#1931
15
06
07
08
1:
0;
0<
1=
1>
#1932
05
0:
0=
0>
#1935
0?
#1936
1$
1'
1)
1.
11
13
#1937
1&
1(
1*
10
12
14
#1943
1A
b1111111110 C
#1944
0A
#1949
0)
03
#1950
0$
0'
0(
0*
0.
01
02
04
#1951
0&
00
15
16
1?
1@
#1952
05
06
0@
#1959
0"
0,
#1960
19
#1961
17
18
09
1;
1<
#1962
1!
1+
07
08
1:
0;
0<
1=
1>
#1963
0:
0=
0>
#1966
0?
#1967
0#
0%
0-
0/
#1974
1A
b0000000001 C
#1975
0A
#1982
1%
1/
#1983
1#
1-
15
1?
1@
b0000010101 B
#1984
05
0@
#1992
0!
0+
19
#1993
16
17
18
09
1;
1<
#1994
06
07
08
1:
0;
0<
1=
1>
#1995
0:
0=
0>
#1998
1!
1)
1+
13
0?
1A
b1111111101 C
#1999
1$
1&
1'
1(
1*
1.
10
11
12
14
0A
#2012
0)
03
#2013
0$
0&
0'
0(
0*
0.
00
01
02
04
#2014
0!
0+
15
1?
1@
b0000010000 B
#2015
05
0@
#2019
0#
0-
#2023
1!
1+
19
#2024
16
17
18
09
1;
1<
#2025
06
07
08
1:
0;
0<
1=
1>
#2026
0:
0=
0>
#2029
1"
1,
0?
#2030
1$
1'
1(
1)
1*
1.
11
12
13
14
#2031
1&
10
#2037
1A
b1111111011 C
#2038
0A
#2043
0)
03
#2044
0$
0&
0'
0(
0*
0.
00
01
02
04
#2045
0"
0,
1?
#2054
19
1@
b0000010001 B
#2055
16
17
18
09
1;
1<
0@
#2056
15
06
07
08
1:
0;
0<
1=
1>
#2057
05
0:
0=
0>
#2060
0?
#2061
1"
1$
1'
1(
1)
1*
1,
1.
11
12
13
14
#2062
1&
10
#2068
1A
#2069
0A
#2074
0)
03
#2075
0$
0'
0(
0*
0.
01
02
04
#2076
0"
0&
0,
00
15
1?
1@
#2077
05
0@
#2085
0!
0+
19
#2086
16
17
18
09
1;
1<
#2087
06
07
08
1:
0;
0<
1=
1>
#2088
0:
0=
0>
#2091
1!
1+
0?
#2092
1$
1)
1.
13
#2093
1#
1&
1'
1(
1*
1-
10
11
12
14
#2099
1A
b1111111101 C
#2100
0A
#2106
0$
0)
0.
03
#2107
0#
0&
0'
0(
0*
0-
00
01
02
04
1?
#2108
0!
0+
#2116
19
1@
b0000010000 B
#2117
16
17
18
09
1;
1<
0@
#2118
15
06
07
08
1:
0;
0<
1=
1>
#2119
05
0:
0=
0>
#2123
0%
0/
0?
1A
b0000000001 C
#2124
1!
1+
0A
#2138
1%
1/
#2139
0!
0+
16
18
19
1?
1@
b0000010100 B
#2140
06
08
09
0@
#2143
0%
0/
#2146
1#
1-
#2147
1"
1,
#2148
1$
1.
#2149
17
1;
1<
#2150
15
07
1:
0;
0<
1=
1>
#2151
0$
0.
05
0:
0=
0>
#2153
0#
0-
#2154
0?
#2155
1!
1+
#2162
1A
b0000000011 C
#2163
0A
#2170
0!
1#
1$
0+
1-
1.
15
16
18
1?
1@
b0000001110 B
#2171
05
06
08
0@
#2178
1!
0"
1+
0,
#2179
19
#2180
17
09
1;
1<
#2181
07
1:
0;
0<
1=
1>
#2182
0:
0=
0>
#2184
0!
0$
0+
0.
#2185
0?
#2193
1A
b0000000100 C
#2194
0A
#2202
1!
1$
1+
1.
15
18
1?
1@
b0000001111 B
#2203
05
08
0@
#2208
0!
0+
#2209
1"
1,
#2211
19
#2212
16
17
09
1;
1<
#2213
06
07
1:
0;
0<
1=
1>
#2214
0"
0,
0:
0=
0>
#2216
0$
0.
#2217
0?
1A
#2218
0A
#2232
1"
1,
#2233
1$
1.
16
18
1?
1@
b0000011010 B
#2234
06
08
0@
#2239
0"
0#
0$
1%
0,
0-
0.
1/
#2242
19
#2243
17
09
1;
1<
#2244
15
07
1:
0;
0<
1=
1>
#2245
05
0:
0=
0>
#2247
0%
0/
#2248
1$
1.
0?
1A
b0000001000 C
#2249
0A
#2262
0$
0.
#2264
1%
1/
1?
#2265
1!
1+
#2270
0!
0+
#2271
1#
1-
#2273
19
1@
b0000010100 B
#2274
16
17
18
09
1;
1<
0@
#2275
15
06
07
08
1:
0;
0<
1=
1>
#2276
05
0:
0=
0>
#2278
0#
0-
#2279
1!
1+
0?
#2280
1$
0%
1.
0/
#2287
1A
b0000001001 C
#2288
0A
#2294
0$
0.
#2295
0!
1%
0+
1/
15
1?
1@
#2296
1#
1-
05
0@
#2303
1!
1+
#2304
19
#2305
16
17
18
09
1;
1<
#2306
06
07
08
1:
0;
0<
1=
1>
#2307
0:
0=
0>
#2310
0?
#2311
0#
1$
0%
0-
1.
0/
#2318
1A
#2319
0A
#2325
0$
0.
#2326
1%
1/
16
1?
1@
b0000010101 B
#2327
1#
1-
06
0@
#2334
1"
1,
#2335
19
#2336
17
18
09
1;
1<
#2337
15
07
08
1:
0;
0<
1=
1>
#2338
05
0:
0=
0>
#2340
0"
0,
#2341
0?
#2342
0!
0#
0%
0+
0-
0/
#2343
1$
1.
#2349
1A
b0000001000 C
#2350
0A
#2356
0$
0.
#2358
1!
1"
1#
1%
1+
1,
1-
1/
15
16
17
18
1?
1@
b0000010111 B
#2359
05
06
07
08
0@
#2362
0#
0-
#2364
0!
0"
1$
0+
0,
1.
#2367
19
#2368
09
1;
1<
#2369
1:
0;
0<
1=
1>
#2370
0$
0.
0:
0=
0>
#2372
1"
1,
#2373
1!
0%
1+
0/
0?
1A
b0000000011 C
#2374
0A
#2388
0"
1%
0,
1/
#2389
0!
1$
0+
1.
15
1?
1@
b0000011000 B
#2390
05
0@
#2397
1!
1+
#2398
19
#2399
16
17
18
09
1;
1<
#2400
06
07
08
1:
0;
0<
1=
1>
#2401
0:
0=
0>
#2402
0!
0+
#2404
0?
#2405
1"
1#
1'
1(
1)
1*
1,
1-
11
12
13
14
#2406
1&
10
#2412
1A
b1111111110 C
#2413
0A
#2418
0)
03
#2419
0&
0'
0(
0*
00
01
02
04
#2420
0"
0#
0,
0-
18
1?
1@
#2421
08
0@
#2422
1!
1+
#2425
0!
0+
#2429
19
#2430
16
17
09
1;
1<
#2431
15
06
07
1:
0;
0<
1=
1>
#2432
05
0:
0=
0>
#2434
0$
0.
#2435
1!
0%
1+
0/
0?
1A
b0000000001 C
#2436
0A
#2451
0!
1$
1%
0+
1.
1/
#2452
16
18
1?
1@
b0000011100 B
#2453
06
08
0@
#2458
1#
0$
1-
0.
#2460
1"
1,
#2461
19
#2462
17
09
1;
1<
#2463
15
07
1:
0;
0<
1=
1>
#2464
0#
0-
05
0:
0=
0>
#2466
1$
1.
#2467
1)
13
0?
1A
b1111111011 C
#2468
1!
1&
1'
1(
1*
1+
10
11
12
14
0A
#2481
0'
0(
0)
0*
01
02
03
04
#2482
0$
0&
0.
00
#2483
0!
0+
1?
#2484
1#
1-
#2490
0"
0,
#2492
19
1@
b0000010100 B
#2493
16
17
18
09
1;
1<
0@
#2494
15
06
07
08
1:
0;
0<
1=
1>
#2495
05
0:
0=
0>
#2497
1"
1,
#2498
0#
1)
0-
13
0?
1A
#2499
1!
1$
1&
1'
1(
1*
1+
1.
10
11
12
14
0A
#2512
0)
03
